<?xml version="1.0" encoding="utf-8"?>
<kml xmlns="http://www.opengis.net/kml/2.2">
<Document>
	<Placemark id="start">
		<name>Kalyani Nagar, Pune, Maharashtra, India</name>

		<Point><coordinates>18.5463402,73.90331180000001</coordinates></Point>
	</Placemark>

<Placemark id="selectedRoute">
<name>Line</name>
	<Style>
		<LineStyle>
		<color>ffff0000</color>
		<width>5.000000</width>
		</LineStyle>
	</Style>
<LineString>
<altitudeMode>relative</altitudeMode>
<coordinates>18.5463402,73.90331180000001
 18.5473971,73.8976004
 18.5523941,73.8973852
 18.5521634,73.89659759999999
 18.5526312,73.8896524
 18.5528624,73.8797049
 18.5501279,73.8787617
 18.531965,73.8538019
 18.5304493,73.8552138
 18.5272999,73.8511517
 18.522846,73.848166
 18.5160815,73.8425117
 18.5146961,73.84241089999999
 18.5068991,73.82786150000001
 18.5037702,73.8213458
 18.4978309,73.8235556
 18.4974666,73.8223891
 18.4917351,73.8211334
 18.4915297,73.82163349999999
 18.4896098,73.8210793
 18.5279466,73.8749931
 18.5280805,73.8733586
 18.5256553,73.86772049999999
 18.5255329,73.8675702
 18.5275876,73.86361169999999
 18.5239988,73.858096
 18.5254598,73.85712099999999
 18.522561,73.8486482
 18.5160815,73.8425117
 18.5146961,73.84241089999999
 18.5137838,73.8416364
 18.5139463,73.8361164
 18.5174861,73.8367407
 18.5180985,73.836674
 18.5463402,73.90331180000001
 18.5473971,73.8976004
 18.5523941,73.8973852
 18.5521634,73.89659759999999
 18.5526312,73.8896524
 18.5528624,73.8797049
 18.5501279,73.8787617
 18.531965,73.8538019
 18.5304493,73.8552138
 18.5272999,73.8511517
 18.522846,73.848166
 18.5160815,73.8425117
 18.5146961,73.84241089999999
 18.5068991,73.82786150000001
 18.5037702,73.8213458
 18.4978309,73.8235556
 18.4974666,73.8223891
 18.4917351,73.8211334
 18.4915297,73.82163349999999
 18.4896098,73.8210793
 18.5463402,73.90331180000001
 18.5473971,73.8976004
 18.5523941,73.8973852
 18.5521634,73.89659759999999
 18.5526312,73.8896524
 18.5528624,73.8797049
 18.5501279,73.8787617
 18.531965,73.8538019
 18.5304493,73.8552138
 18.5272999,73.8511517
 18.522846,73.848166
 18.5160815,73.8425117
 18.5146961,73.84241089999999
 18.5068991,73.82786150000001
 18.5037702,73.8213458
 18.4978309,73.8235556
 18.4974666,73.8223891
 18.4917351,73.8211334
 18.4915297,73.82163349999999
 18.4896098,73.8210793
 18.5463402,73.90331180000001
 18.5473971,73.8976004
 18.5523941,73.8973852
 18.5521634,73.89659759999999
 18.5526312,73.8896524
 18.5528624,73.8797049
 18.5501279,73.8787617
 18.531965,73.8538019
 18.5304493,73.8552138
 18.5272999,73.8511517
 18.522846,73.848166
 18.5160815,73.8425117
 18.5146961,73.84241089999999
 18.5137838,73.8416364
 18.5139463,73.8361164
 18.5174861,73.8367407
 18.5180985,73.836674
 18.5463402,73.90331180000001
 18.5473971,73.8976004
 18.5523941,73.8973852
 18.5521634,73.89659759999999
 18.5526312,73.8896524
 18.5528624,73.8797049
 18.5501279,73.8787617
 18.531965,73.8538019
 18.5304493,73.8552138
 18.5272999,73.8511517
 18.522846,73.848166
 18.5160815,73.8425117
 18.5146961,73.84241089999999
 18.5068991,73.82786150000001
 18.5037702,73.8213458
 18.4978309,73.8235556
 18.4974666,73.8223891
 18.4917351,73.8211334
 18.4915297,73.82163349999999
 18.4896098,73.8210793
 </coordinates>
</LineString>
</Placemark>
<Placemark id="end">
<name>Karve Nagar, Pune, Maharashtra 411052, India</name>
<Point>
<coordinates>18.4897,73.82028869999999</coordinates>
</Point>
</Placemark>
<Placemark id="polyline">
<name>siepBufabM}@rHk@jEOnAYrE_@lDa@tDkF[uFO_JLyAF[HSFWZd@fCPp@]VEz@YhJMpGQtLK|EO~A?xAm@`KwAhOCv@@lAHbBNlBl@|Hb@vEj@FdCd@lEfAbBj@bBd@bV|E~Bb@dBd@`@HTLpBrAxBpARPZb@dGlRv@lCZzAzDnVb@bB`ApC|@nBn@~@hAnAbC`CjAfAv@`AjD~Fn@h@|@h@vFfC~Bn@xA`@`@L^Tf@l@zCzEJd@DhBEbBMnBA|@D~@x@lHz@`ITb@n@z@dB}ApBuBjBuANZBl@?bAB~@N`AFPjAhAr@jAd@|@JLp@d@dFnDv@j@lAnAnCbB|D~BdBdA~HhEfBdAHLtA`AfBxAbGtE`D~BjCvBbCtBhFbFbEdCrAp@VRVHPBzCk@XIHNrCrCn@z@\b@Vj@`@hAtC|IhCvG`B|DtBxF|AnE|CjHrCnG~D~Jp@|A|AtE`@Kh@D|Ch@x@t@f@f@n@bAr@~B^tBFl@ErBE|AE|@Fr@Nj@b@b@\VV\Ph@PhBJzBHpA`@GxIeB`Eo@xEu@r@QfBy@hAo@lBcAv@e@fAhFnBPdHj@xALh@PbBXpK~AhBb@h@cBbCd@l@JfB^r@Np@JEr@KhB</name>
</Placemark><Placemark id="routeName">
<name>Sangamwadi Rd</name></Placemark></Document>
</kml>