<?xml version="1.0" encoding="utf-8"?>
<kml xmlns="http://www.opengis.net/kml/2.2">
<Document>
	<Placemark id="start">
		<name>Kalyani Nagar, Pune, Maharashtra, India</name>

		<Point><coordinates>18.5463402,73.90331180000001</coordinates></Point>
	</Placemark>

<Placemark id="selectedRoute">
<name>Line</name>
	<Style>
		<LineStyle>
		<color>ffff0000</color>
		<width>5.000000</width>
		</LineStyle>
	</Style>
<LineString>
<altitudeMode>relative</altitudeMode>
<coordinates>18.5463402,73.90331180000001
 18.5473971,73.8976004
 18.5523941,73.8973852
 18.5521634,73.89659759999999
 18.5526312,73.8896524
 18.5528624,73.8797049
 18.5501279,73.8787617
 18.531965,73.8538019
 18.5304493,73.8552138
 18.5272999,73.8511517
 18.522846,73.848166
 18.5160815,73.8425117
 18.5146961,73.84241089999999
 18.5068991,73.82786150000001
 18.5037702,73.8213458
 18.4978309,73.8235556
 18.4974666,73.8223891
 18.4917351,73.8211334
 18.4915297,73.82163349999999
 18.4896098,73.8210793
 18.5206624,73.8567415
 18.5206797,73.8557105
 18.5185516,73.85618939999999
 18.5186014,73.854552
 18.5202074,73.85449
 18.5204022,73.8537022
 18.5210478,73.8535079
 18.519942,73.84866199999999
 18.5151797,73.8448446
 18.5160443,73.8434731
 18.5163005,73.8426563
 18.5160815,73.8425117
 18.5146961,73.84241089999999
 18.5137838,73.8416364
 18.5139463,73.8361164
 18.5174861,73.8367407
 18.5180985,73.836674
 18.5463402,73.90331180000001
 18.5473971,73.8976004
 18.5523941,73.8973852
 18.5521634,73.89659759999999
 18.5526312,73.8896524
 18.5528624,73.8797049
 18.5501279,73.8787617
 18.531965,73.8538019
 18.5304493,73.8552138
 18.5272999,73.8511517
 18.522846,73.848166
 18.5160815,73.8425117
 18.5146961,73.84241089999999
 18.5068991,73.82786150000001
 18.5037702,73.8213458
 18.4978309,73.8235556
 18.4974666,73.8223891
 18.4917351,73.8211334
 18.4915297,73.82163349999999
 18.4896098,73.8210793
 18.5463402,73.90331180000001
 18.5473971,73.8976004
 18.5523941,73.8973852
 18.5521634,73.89659759999999
 18.5526312,73.8896524
 18.5521334,73.873398
 18.5486903,73.87124179999999
 18.5574229,73.8576768
 18.5549999,73.8520679
 18.5543101,73.8525465
 18.5519798,73.8496309
 18.5574347,73.84649399999999
 18.5565977,73.8442895
 18.5616031,73.8411859
 18.5603688,73.8149775
 18.5616917,73.8139003
 18.5613073,73.8094108
 18.5638674,73.8104747
 18.5463402,73.90331180000001
 18.5473971,73.8976004
 18.5523941,73.8973852
 18.5448717,73.88477139999999
 18.5416595,73.885328
 18.5412344,73.88443149999999
 18.5307515,73.8756569
 18.528229,73.8762429
 </coordinates>
</LineString>
</Placemark>
<Placemark id="end">
<name>HH Prince Aga Khan Rd, Agarkar Nagar, Pune, Maharashtra 411001, India</name>
<Point>
<coordinates>18.5279466,73.8749931</coordinates>
</Point>
</Placemark>
<Placemark id="polyline">
<name>siepBufabM}@rHk@jEOnAYrE_@lDa@tDkF[uFO_JLyAF[HSFWZd@fCPp@xB~Dt@fA~DlEdC`CdCpBhD~CdC~Bz@`AxAbBx@jAz@bBVv@d@vBjAzI~@pINbALn@H`@|B[~K_BPK\Ap@FVLTRHNRbAFX@b@JNFXL|@NVn@d@|CfBxVdNfGvDvCjBp@`@XV~BpC`HjIfDhD`GaAvEq@\?TIRC?NPpCBz@Gh@</name>
</Placemark><Placemark id="routeName">
<name>Samrat Ashok Rd and Bund Garden Rd</name></Placemark></Document>
</kml>