<?xml version="1.0" encoding="utf-8"?>
<kml xmlns="http://www.opengis.net/kml/2.2">
<Document>
	<Placemark id="start">
		<name>Kalyani Nagar, Pune, Maharashtra, India</name>

		<Point><coordinates>18.5463402,73.90331180000001</coordinates></Point>
	</Placemark>

<Placemark id="selectedRoute">
<name>Line</name>
	<Style>
		<LineStyle>
		<color>ffff0000</color>
		<width>5.000000</width>
		</LineStyle>
	</Style>
<LineString>
<altitudeMode>relative</altitudeMode>
<coordinates>18.5362118,73.8939786
 18.5358503,73.89511689999999
 18.5365953,73.89714479999999
 18.5393685,73.89730229999999
 18.5391518,73.9036502
 18.5542181,73.9060894
 18.5560125,73.9063832
 18.5781599,73.907967
 18.5781954,73.90768489999999
 18.5317014,73.9155284
 18.5323604,73.9171561
 18.5393982,73.88549669999999
 18.538075,73.8855541
 18.5347242,73.87965539999999
 18.5307515,73.8756569
 18.529748,73.857365
 18.5295399,73.85318749999999
 18.527542,73.8514185
 18.5275652,73.8507529
 18.5297581,73.8498142
 18.5307446,73.8473852
 18.5320978,73.8428204
 18.5407884,73.8307769
 18.5420803,73.8289324
 18.5499934,73.8095723
 18.5578796,73.8090557
 18.5463402,73.90331180000001
 18.5473971,73.8976004
 18.5523941,73.8973852
 18.5521634,73.89659759999999
 18.5526312,73.8896524
 18.5528624,73.8797049
 18.5501279,73.8787617
 18.531965,73.8538019
 18.5304493,73.8552138
 18.527542,73.8514185
 18.5275652,73.8507529
 18.5297581,73.8498142
 18.5307446,73.8473852
 18.5313611,73.8446596
 18.5362118,73.8939786
 18.5358503,73.89511689999999
 18.5365953,73.89714479999999
 18.5393685,73.89730229999999
 18.5391518,73.9036502
 18.5542181,73.9060894
 18.5560125,73.9063832
 18.5781599,73.907967
 18.5781954,73.90768489999999
 18.5463402,73.90331180000001
 18.5473971,73.8976004
 18.5523941,73.8973852
 18.5521634,73.89659759999999
 18.5526312,73.8896524
 18.5528624,73.8797049
 18.5501279,73.8787617
 18.531965,73.8538019
 18.5304493,73.8552138
 18.5272999,73.8511517
 18.522846,73.848166
 18.5160815,73.8425117
 18.5146961,73.84241089999999
 18.5068991,73.82786150000001
 18.5037702,73.8213458
 18.4978309,73.8235556
 18.4974666,73.8223891
 18.4917351,73.8211334
 18.4915297,73.82163349999999
 18.4896098,73.8210793
 18.5463402,73.90331180000001
 18.5473971,73.8976004
 18.5523941,73.8973852
 18.5521634,73.89659759999999
 18.5526312,73.8896524
 18.5521334,73.873398
 18.5486903,73.87124179999999
 18.5545597,73.8623811
 18.5492447,73.85489350000002
 18.5490823,73.8511764
 18.5449733,73.83919829999999
 18.5446039,73.83882489999999
 18.538513,73.8339656
 18.5407884,73.8307769
 18.5420803,73.8289324
 18.5499934,73.8095723
 18.5578796,73.8090557
 18.5463402,73.90331180000001
 18.5473971,73.8976004
 18.5523941,73.8973852
 18.5521634,73.89659759999999
 18.5526312,73.8896524
 18.5521334,73.873398
 18.5486903,73.87124179999999
 18.5545597,73.8623811
 18.5492447,73.85489350000002
 18.5490823,73.8511764
 18.5449733,73.83919829999999
 18.5446039,73.83882489999999
 18.538513,73.8339656
 18.5407884,73.8307769
 18.5420803,73.8289324
 18.5499934,73.8095723
 18.5578796,73.8090557
 18.5463402,73.90331180000001
 18.5473971,73.8976004
 18.5523941,73.8973852
 18.5521634,73.89659759999999
 18.5526312,73.8896524
 18.5528624,73.8797049
 18.5501279,73.8787617
 18.531965,73.8538019
 18.5304493,73.8552138
 18.5272999,73.8511517
 18.522846,73.848166
 18.5160815,73.8425117
 18.5146961,73.84241089999999
 18.5068991,73.82786150000001
 18.5037702,73.8213458
 18.4978309,73.8235556
 18.4974666,73.8223891
 18.4917351,73.8211334
 18.4915297,73.82163349999999
 18.4896098,73.8210793
 18.5463402,73.90331180000001
 18.5473971,73.8976004
 18.5523941,73.8973852
 18.5521634,73.89659759999999
 18.5526312,73.8896524
 18.5528624,73.8797049
 18.5501279,73.8787617
 18.531965,73.8538019
 18.5304493,73.8552138
 18.527542,73.8514185
 18.5275652,73.8507529
 18.5297581,73.8498142
 18.5307446,73.8473852
 18.5313611,73.8446596
 19.2412099,73.1304866
 19.2412382,73.1306677
 19.241625,73.13071029999999
 19.2419365,73.1296239
 19.2399222,73.12915160000001
 19.2336396,73.1203537
 19.1430282,73.0468295
 19.0263637,73.10575469999999
 19.0263746,73.1060677
 19.0185788,73.1070467
 19.0171073,73.1106574
 19.0173592,73.11124219999999
 19.0160796,73.1115504
 18.6628311,73.7266546
 18.6618205,73.7303945
 18.5716946,73.7648718
 18.5711931,73.765317
 18.5690159,73.7661463
 18.542234,73.8285112
 18.539741,73.8324402
 18.5369907,73.8360699
 18.5321747,73.8428567
 18.5309006,73.847217
 18.5463402,73.90331180000001
 18.5473971,73.8976004
 18.5523941,73.8973852
 18.5521634,73.89659759999999
 18.5526312,73.8896524
 18.5521334,73.873398
 18.5486903,73.87124179999999
 18.5545597,73.8623811
 18.5492447,73.85489350000002
 18.5490823,73.8511764
 18.5449733,73.83919829999999
 18.5446039,73.83882489999999
 18.538513,73.8339656
 18.5407884,73.8307769
 18.5420803,73.8289324
 18.5499934,73.8095723
 18.5578796,73.8090557
 </coordinates>
</LineString>
</Placemark>
<Placemark id="end">
<name>Aundh, Pune, Maharashtra, India</name>
<Point>
<coordinates>18.5578742,73.8077414</coordinates>
</Point>
</Placemark>
<Placemark id="polyline">
<name>siepBufabM}@rHk@jEOnAYrE_@lDa@tDkF[uFO_JLyAF[HSFWZd@fCPp@]VEz@YhJMpGQtLK|EO~A?xAm@`KwAhOCv@@lAHbBNlBl@|HrAlOV|DhA~S?vAtBlA|GfDjBhApAn@p@^x@j@_MpTmLdTa@|@w@rAW^cEtEUj@m@~@MZMl@Ax@Df@Jl@dA|CR`AzCrGx@pBZj@zAdCtGpCvF|BjAh@`@HrAv@RJKNwBtC}@rAe@`BOl@Gl@AVHRLP`E~C^d@R\FRB\bC|E~CfGtAhCf@t@bAzAbBArC?Z@PBFHFJBPAhB?nKBjD@?B?FD@HAHEDC@A?DbQ?nFZb@TRVRJ?tAHpAJf@Lx@Z~At@t@d@t@n@`AdAvCjD|CnDnCxCvAtAfBvAVRKLaB~BcInM}@xAoCfEiAnBO~Bg@xFa@bDMp@c@t@a@b@cAx@o@h@UVgCzDwClE[n@a@~A{@|Dk@`CkDjLYtAa@~C]~Ba@xAsCzJoAnDo@`BaD`LcA`ESdAkAKeG?}D@{BF_DLm@DkBPiCNyAHkB?mGR@fG</name>
</Placemark><Placemark id="routeName">
<name>Baner Rd</name></Placemark></Document>
</kml>