<?xml version="1.0" encoding="utf-8"?>
<kml xmlns="http://www.opengis.net/kml/2.2">
<Document>
	<Placemark id="start">
		<name>Kalyani Nagar, Pune, Maharashtra, India</name>

		<Point><coordinates>18.5463402,73.90331180000001</coordinates></Point>
	</Placemark>

<Placemark id="selectedRoute">
<name>Line</name>
	<Style>
		<LineStyle>
		<color>ffff0000</color>
		<width>5.000000</width>
		</LineStyle>
	</Style>
<LineString>
<altitudeMode>relative</altitudeMode>
<coordinates>18.5463402,73.90331180000001
 18.5473971,73.8976004
 18.5523941,73.8973852
 18.5448717,73.88477139999999
 18.5416595,73.885328
 18.5412344,73.88443149999999
 18.5307515,73.8756569
 18.528229,73.8762429
 18.5463402,73.90331180000001
 18.5473971,73.8976004
 18.5523941,73.8973852
 18.5521634,73.89659759999999
 18.5526312,73.8896524
 18.5521334,73.873398
 18.5486903,73.87124179999999
 18.5545597,73.8623811
 18.5492447,73.85489350000002
 18.5490823,73.8511764
 18.5449733,73.83919829999999
 18.5446039,73.83882489999999
 18.538513,73.8339656
 18.5407884,73.8307769
 18.5420803,73.8289324
 18.5499934,73.8095723
 18.5578796,73.8090557
 18.5463402,73.90331180000001
 18.5473971,73.8976004
 18.5523941,73.8973852
 18.5521634,73.89659759999999
 18.5526312,73.8896524
 18.5521334,73.873398
 18.5486903,73.87124179999999
 18.5545597,73.8623811
 18.5492447,73.85489350000002
 18.5490823,73.8511764
 18.5449733,73.83919829999999
 18.5446039,73.83882489999999
 18.538513,73.8339656
 18.5407884,73.8307769
 18.5420803,73.8289324
 18.5499934,73.8095723
 18.5578796,73.8090557
 </coordinates>
</LineString>
</Placemark>
<Placemark id="end">
<name>Aundh, Pune, Maharashtra, India</name>
<Point>
<coordinates>18.5578742,73.8077414</coordinates>
</Point>
</Placemark>
<Placemark id="polyline">
<name>siepBufabM}@rHk@jEOnAYrE_@lDa@tDkF[uFO_JLyAF[HSFWZd@fCPp@]VEz@YhJMpGQtLK|EO~A?xAm@`KwAhOCv@@lAHbBNlBl@|HrAlOV|DhA~S?vAtBlA|GfDjBhApAn@p@^x@j@_MpTmLdTa@|@w@rAW^cEtEUj@m@~@MZMl@Ax@Df@Jl@dA|CR`AzCrGx@pBZj@zAdCtGpCvF|BjAh@`@HrAv@RJKNwBtC}@rAe@`BOl@Gl@AVHRLP`E~C^d@R\FRB\bC|E~CfGtAhCf@t@bAzAbBArC?Z@PBFHFJBPAhB?nKBjD@?B?FD@HAHEDC@A?DbQ?nFZb@TRVRJ?tAHpAJf@Lx@Z~At@t@d@t@n@`AdAvCjD|CnDnCxCvAtAfBvAVRKLaB~BcInM}@xAoCfEiAnBO~Bg@xFa@bDMp@c@t@a@b@cAx@o@h@UVgCzDwClE[n@a@~A{@|Dk@`CkDjLYtAa@~C]~Ba@xAsCzJoAnDo@`BaD`LcA`ESdAkAKeG?}D@{BF_DLm@DkBPiCNyAHkB?mGR@fG</name>
</Placemark><Placemark id="routeName">
<name>Baner Rd</name></Placemark></Document>
</kml>