<?xml version="1.0" encoding="utf-8"?>
<kml xmlns="http://www.opengis.net/kml/2.2">
<Document>
	<Placemark id="start">
		<name>Koregaon Park Annexe, Mundhwa, Pune, Maharashtra, India</name>

		<Point><coordinates>18.5317014,73.9155284</coordinates></Point>
	</Placemark>

<Placemark id="selectedRoute">
<name>Line</name>
	<Style>
		<LineStyle>
		<color>ffff0000</color>
		<width>5.000000</width>
		</LineStyle>
	</Style>
<LineString>
<altitudeMode>relative</altitudeMode>
<coordinates>18.5463402,73.90331180000001
 18.5473971,73.8976004
 18.5523941,73.8973852
 18.5521634,73.89659759999999
 18.5526312,73.8896524
 18.5528624,73.8797049
 18.5501279,73.8787617
 18.531965,73.8538019
 18.5304493,73.8552138
 18.5272999,73.8511517
 18.522846,73.848166
 18.5160815,73.8425117
 18.5146961,73.84241089999999
 18.5137838,73.8416364
 18.5139463,73.8361164
 18.5174861,73.8367407
 18.5180985,73.836674
 18.5317014,73.9155284
 18.5323604,73.9171561
 18.5393982,73.88549669999999
 18.538075,73.8855541
 18.5347242,73.87965539999999
 18.5307515,73.8756569
 18.529748,73.857365
 18.5295399,73.85318749999999
 18.527542,73.8514185
 18.5275652,73.8507529
 18.5297581,73.8498142
 18.5307446,73.8473852
 18.5313611,73.8446596
 18.5317014,73.9155284
 18.5323604,73.9171561
 18.5393982,73.88549669999999
 18.538075,73.8855541
 18.5347242,73.87965539999999
 18.5307515,73.8756569
 18.529748,73.857365
 18.5295399,73.85318749999999
 18.527542,73.8514185
 18.5275652,73.8507529
 18.5297581,73.8498142
 18.5307446,73.8473852
 18.5320978,73.8428204
 18.5407884,73.8307769
 18.5420803,73.8289324
 18.5499934,73.8095723
 18.5578796,73.8090557
 18.5317014,73.9155284
 18.5323604,73.9171561
 18.5393982,73.88549669999999
 18.538075,73.8855541
 18.5347242,73.87965539999999
 18.5307515,73.8756569
 18.529748,73.857365
 18.5295399,73.85318749999999
 18.527542,73.8514185
 18.5275652,73.8507529
 18.5297581,73.8498142
 18.5307446,73.8473852
 18.5313611,73.8446596
 18.530837,73.84746899999999
 18.5302272,73.849789
 18.5298512,73.8511255
 18.5289697,73.8525201
 18.527542,73.8514185
 18.5275652,73.8507529
 18.5297581,73.8498142
 18.5307446,73.8473852
 18.5320978,73.8428204
 18.5407884,73.8307769
 18.5420803,73.8289324
 18.5499934,73.8095723
 18.5578796,73.8090557
 18.5463402,73.90331180000001
 18.5473971,73.8976004
 18.5523941,73.8973852
 18.5521634,73.89659759999999
 18.5526312,73.8896524
 18.5528624,73.8797049
 18.5501279,73.8787617
 18.531965,73.8538019
 18.5304493,73.8552138
 18.5272999,73.8511517
 18.522846,73.848166
 18.5160815,73.8425117
 18.5146961,73.84241089999999
 18.5137838,73.8416364
 18.5139463,73.8361164
 18.5174861,73.8367407
 18.5180985,73.836674
 18.5317014,73.9155284
 18.5323604,73.9171561
 18.5393982,73.88549669999999
 18.5412344,73.88443149999999
 18.5448518,73.8832869
 18.5545597,73.8623811
 18.5492447,73.85489350000002
 18.5490823,73.8511764
 18.5449733,73.83919829999999
 18.5446039,73.83882489999999
 18.5386347,73.8340735
 </coordinates>
</LineString>
</Placemark>
<Placemark id="end">
<name>Ganeshkhind Rd, Premnagar, Pune, Maharashtra 411053, India</name>
<Point>
<coordinates>18.5364398,73.8367811</coordinates>
</Point>
</Placemark>
<Placemark id="polyline">
<name>cnbpBascbMo@oC}@iCUk@SRc@r@oBbE{A`D{BlFqDvH}DvIuDrIcFzKs@lBk@bDaAbG@PEROv@UvAG~@JlDDjC_@~NU`LU~HQ~JYzMVzIT|GHhBCPNdH@XgDHmCESBYJi@d@Z|A?n@CPMTYTi@DaBNyG|@gDj@wAXORIP?NFTTh@f@|@^x@^fARbATtBRlBNh@^|AJx@?p@Kr@[z@kBdD}AhCoBhD_BjCmAhCwD|GoExHkA`CmM`UiLfTkArB_@h@sD`EIZi@x@]p@Ml@A\@l@Fj@XbA~@pCF`@~B`FtAbDvBpDxQxH`@Hd@X`Ah@y@jAoBhCWb@Sn@a@~AGv@?TLRNPrCvBd@^^d@Zp@B\n@rAzDvH`B|Ct@rA`BbCtCApB?\DLNDLAfF@fM@?@?@?D@@BBF?HEFC@C?D|JAnG@dDRZPPb@\fAFdADp@HjA`@|@^nAr@fA|@dJhKzAdBlBrBv@r@~ApA|AwBpEeGVQ|@qAn@{@</name>
</Placemark><Placemark id="routeName">
<name>N Main Rd</name></Placemark></Document>
</kml>