<?xml version="1.0" encoding="utf-8"?>
<kml xmlns="http://www.opengis.net/kml/2.2">
<Document>
	<Placemark id="start">
		<name>Ganesh Mala, Sitabag Colony, Dattawadi, Pune, Maharashtra 411030</name>

		<Point><coordinates>18.4964196,73.8387983</coordinates></Point>
	</Placemark>

<Placemark id="selectedRoute">
<name>Line</name>
	<Style>
		<LineStyle>
		<color>ffff0000</color>
		<width>5.000000</width>
		</LineStyle>
	</Style>
<LineString>
<altitudeMode>relative</altitudeMode>
<coordinates>18.4964196,73.8387983
 18.5012161,73.8455985
 18.5050683,73.8448674
 18.5048757,73.84208269999999
 18.5093814,73.8420388
 18.5116228,73.83734369999999
 18.5139463,73.8361164
 18.5174861,73.8367407
 18.5180985,73.836674
 </coordinates>
</LineString>
</Placemark>
<Placemark id="end">
<name>Deccan Gymkhana, Pune, Maharashtra 411004, India</name>
<Point>
<coordinates>18.5175874,73.84166789999999</coordinates>
</Point>
</Placemark>
<Placemark id="polyline">
<name>sq{oBostaM}FqIiFmIqBeEq@yAm@aAq@}@gAuAwBwCSa@wBRqEh@oAL{AHaBPiDh@ZdDNtBC`GANO?yF@aJFwGAC~FCJMNyDrDcAbAGTY~B]vAe@vAa@l@q@l@uGrDiA`@cBRwBOsEi@aEq@kBMiAAyBLBwDP{E\iFVsDXuD</name>
</Placemark><Placemark id="routeName">
<name>Narveer Tanaji Malusare Rd/Sinhagad Rd</name></Placemark></Document>
</kml>