<?xml version="1.0" encoding="utf-8"?>
<kml xmlns="http://www.opengis.net/kml/2.2">
<Document>
	<Placemark id="start">
		<name>Kalyani Nagar, Pune, Maharashtra, India</name>

		<Point><coordinates>18.5463402,73.90331180000001</coordinates></Point>
	</Placemark>

<Placemark id="selectedRoute">
<name>Line</name>
	<Style>
		<LineStyle>
		<color>ffff0000</color>
		<width>5.000000</width>
		</LineStyle>
	</Style>
<LineString>
<altitudeMode>relative</altitudeMode>
<coordinates>18.5317014,73.9155284
 18.5323604,73.9171561
 18.5393982,73.88549669999999
 18.538075,73.8855541
 18.5347242,73.87965539999999
 18.5307515,73.8756569
 18.529748,73.857365
 18.5295399,73.85318749999999
 18.527542,73.8514185
 18.5275652,73.8507529
 18.5297581,73.8498142
 18.5307446,73.8473852
 18.5320978,73.8428204
 18.5407884,73.8307769
 18.5420803,73.8289324
 18.5499934,73.8095723
 18.5578796,73.8090557
 18.5463402,73.90331180000001
 18.5473971,73.8976004
 18.5523941,73.8973852
 18.5521634,73.89659759999999
 18.5526312,73.8896524
 18.5528624,73.8797049
 18.5501279,73.8787617
 18.531965,73.8538019
 18.5304493,73.8552138
 18.5272999,73.8511517
 18.522846,73.848166
 18.5160815,73.8425117
 18.5146961,73.84241089999999
 18.5068991,73.82786150000001
 18.5037702,73.8213458
 18.4978309,73.8235556
 18.4974666,73.8223891
 18.4917351,73.8211334
 18.4915297,73.82163349999999
 18.4896098,73.8210793
 18.5277238,73.8723694
 18.5281641,73.8733232
 18.5281116,73.8762179
 18.5307515,73.8756569
 18.529748,73.857365
 18.5295399,73.85318749999999
 18.527542,73.8514185
 18.5275652,73.8507529
 18.5297581,73.8498142
 18.5307446,73.8473852
 18.5313611,73.8446596
 18.5206624,73.8567415
 18.5206797,73.8557105
 18.5185516,73.85618939999999
 18.5186014,73.854552
 18.5266668,73.85234129999999
 18.5297581,73.8498142
 18.5307446,73.8473852
 18.5313611,73.8446596
 18.5463402,73.90331180000001
 18.5473971,73.8976004
 18.5523941,73.8973852
 18.5521634,73.89659759999999
 18.5526312,73.8896524
 18.5528624,73.8797049
 18.5501279,73.8787617
 18.531965,73.8538019
 18.5304493,73.8552138
 18.5272999,73.8511517
 18.522846,73.848166
 18.5160815,73.8425117
 18.5146961,73.84241089999999
 18.5068991,73.82786150000001
 18.5037702,73.8213458
 18.4978309,73.8235556
 18.4974666,73.8223891
 18.4917351,73.8211334
 18.4915297,73.82163349999999
 18.4896098,73.8210793
 18.5463402,73.90331180000001
 18.5473971,73.8976004
 18.5523941,73.8973852
 18.5521634,73.89659759999999
 18.5526312,73.8896524
 18.5528624,73.8797049
 18.5501279,73.8787617
 18.531965,73.8538019
 18.5304493,73.8552138
 18.527542,73.8514185
 18.5275652,73.8507529
 18.5297581,73.8498142
 18.5307446,73.8473852
 18.5313611,73.8446596
 18.5317014,73.9155284
 18.5323604,73.9171561
 18.5393982,73.88549669999999
 18.538075,73.8855541
 18.5347242,73.87965539999999
 18.5307515,73.8756569
 18.529748,73.857365
 18.5295399,73.85318749999999
 18.5272999,73.8511517
 18.522846,73.848166
 18.5160815,73.8425117
 18.5146961,73.84241089999999
 18.5068136,73.8276525
 18.5066045,73.82400559999999
 18.5074262,73.80764909999999
 18.5463402,73.90331180000001
 18.5473971,73.8976004
 18.5523941,73.8973852
 18.5521634,73.89659759999999
 18.5526312,73.8896524
 18.5528624,73.8797049
 18.5501279,73.8787617
 18.531965,73.8538019
 18.5304493,73.8552138
 18.5272999,73.8511517
 18.522846,73.848166
 18.5160815,73.8425117
 18.5146961,73.84241089999999
 18.5068136,73.8276525
 18.5066045,73.82400559999999
 18.5074262,73.80764909999999
 </coordinates>
</LineString>
</Placemark>
<Placemark id="end">
<name>Kothrud, Pune, Maharashtra 411038, India</name>
<Point>
<coordinates>18.5073985,73.8076509</coordinates>
</Point>
</Placemark>
<Placemark id="polyline">
<name>siepBufabM}@rHk@jEOnAYrE_@lDa@tDkF[uFO_JLyAF[HSFWZd@fCPp@]VEz@YhJMpGQtLK|EO~A?xAm@`KwAhOCv@@lAHbBNlBl@|Hb@vEj@FdCd@lEfAbBj@bBd@bV|E~Bb@dBd@`@HTLpBrAxBpARPZb@dGlRv@lCZzAzDnVb@bB`ApC|@nBn@~@hAnAbC`CjAfAv@`AjD~Fn@h@|@h@vFfC~Bn@xA`@`@L^Tf@l@zCzEJd@DhBEbBMnBA|@D~@x@lHz@`ITb@n@z@dB}ApBuBjBuANZBl@?bAB~@N`AFPjAhAr@jAd@|@JLp@d@dFnDv@j@lAnAnCbB|D~BdBdA~HhEfBdAHLtA`AfBxAbGtE`D~BjCvBbCtBhFbFbEdCrAp@VRVHPBzCk@XIHNrCrCn@z@\b@Vj@`@hAtC|IhCvG`B|DtBxF|AnE|CjHrCnG~D~Jp@|A|AtEPh@rAtDl@lBVbANn@Dn@?^K`AMd@]r@w@|@a@`@sEtDgDhCmDzCm@p@eAhA_@l@e@fAQfAKjCHvD\rDZrBl@pFd@bCd@|EF|AH|CJlALfAPt@d@~@f@x@x@`AZXPZJ|@RlBJx@JVl@`B\v@f@fBHj@D?</name>
</Placemark><Placemark id="routeName">
<name>Sangamwadi Rd</name></Placemark></Document>
</kml>